Logistic Regression
…
- turn to probabilities by: odds/(1+odds)

---

.tiny[

```r
# 1 = not premature
mortality
```

```
## # A tibble: 300 x 4
##    Intelligence_Self Intelligence_Mate premature.d NOT.premature
##                <dbl>             <dbl> <fct>               <dbl>
##  1                22                19 normal                  1
##  2                22                18 normal                  1
##  3                21                21 normal                  1
##  4                22                17 normal                  1
##  5                19                18 normal                  1
##  6                19                20 premature               0
##  7                16                18 normal                  1
##  8                15                11 premature               0
##  9                16                21 normal                  1
## 10                19                22 normal                  1
## # … with 290 more rows
```
…
