General Linear Model
…
.pull-left[

Example data can be found on GitHub, or here: [`exampleData.csv`](../data/exampleData.csv)

]
.pull-right[

``` r
example.data
```

```
## # A tibble: 270 × 3
##       id    tx traffic.risk
##    <dbl> <dbl>        <dbl>
##  1     1     1         1.86
##  2     2     1         1   
##  3     3     1         3.29
##  4     4     1         2   
##  5     5     1         2.43
##  6     6     1         3.29
##  7     7     0         1.17
##  8     8     0         2.43
##  9     9     0         3   
## 10    10     1         1.71
## # ℹ 260 more rows
```
…
- Nominal/categorical variables do not have any inherent numbers associated with them so we need to assign them numbers

- What numbers you assign will impact the equation/estimates/hypothesis you can test  
- Make them useful! O and 1 are useful and are the default in `R`

---
## ANOVA as regression
.center[
`$$T.risk_i = b_{0} + b_{1}TX_i + e_i$$`

```
## # A tibble: 270 × 3
##       id    tx traffic.risk
##    <dbl> <dbl>        <dbl>
##  1     1     1         1.86
##  2     2     1         1   
##  3     3     1         3.29
##  4     4     1         2   
##  5     5     1         2.43
##  6     6     1         3.29
##  7     7     0         1.17
##  8     8     0         2.43
##  9     9     0         3   
## 10    10     1         1.71
## # ℹ 260 more rows
```
…
``` r
library(dplyr)
example.data$tx.r <- as.factor(example.data$tx)
example.data$tx.r <- recode_factor(example.data$tx.r, "0" = "control", "1" = "treatment") 
```
Create a new variable that is not numeric

``` r
example.data
```

```
## # A tibble: 270 × 4
##       id    tx traffic.risk tx.r     
##    <dbl> <dbl>        <dbl> <fct>    
##  1     1     1         1.86 treatment
##  2     2     1         1    treatment
##  3     3     1         3.29 treatment
##  4     4     1         2    treatment
##  5     5     1         2.43 treatment
##  6     6     1         3.29 treatment
##  7     7     0         1.17 control  
##  8     8     0         2.43 control  
##  9     9     0         3    control  
## 10    10     1         1.71 treatment
## # ℹ 260 more rows
```
…
---
## Effect coding
.small[

``` r
example.data$tx.effect <- dplyr::recode(example.data$tx, '0' = -1, '1' = 1) 
```
]

``` r
example.data
```

```
## # A tibble: 270 × 5
##       id    tx traffic.risk tx.r      tx.effect
##    <dbl> <dbl>        <dbl> <fct>         <dbl>
##  1     1     1         1.86 treatment         1
##  2     2     1         1    treatment         1
##  3     3     1         3.29 treatment         1
##  4     4     1         2    treatment         1
##  5     5     1         2.43 treatment         1
##  6     6     1         3.29 treatment         1
##  7     7     0         1.17 control          -1
##  8     8     0         2.43 control          -1
##  9     9     0         3    control          -1
## 10    10     1         1.71 treatment         1
## # ℹ 260 more rows
```
…
`$$Y_{i}  - \hat{Y}_{i} = e$$` 

- Can you plug in numbers and calculate subject 3's predicted and residual scores without explicitly asking for lm object residuals and fitted values? (using the same model from slide 37 on)

- Post answers in Slack -- see if you and your peers get the same results!

---
class: clear

``` r
example.data
```

```
## # A tibble: 270 × 5
##       id    tx traffic.risk tx.r      tx.effect
##    <dbl> <dbl>        <dbl> <fct>         <dbl>
##  1     1     1         1.86 treatment         1
##  2     2     1         1    treatment         1
##  3     3     1         3.29 treatment         1
##  4     4     1         2    treatment         1
##  5     5     1         2.43 treatment         1
##  6     6     1         3.29 treatment         1
##  7     7     0         1.17 control          -1
##  8     8     0         2.43 control          -1
##  9     9     0         3    control          -1
## 10    10     1         1.71 treatment         1
## # ℹ 260 more rows
```
…
