Become a Bayesian in 3 simple steps
…
Our posterior is literally made up of educated guesses by the algorithm

tidy_draws(fit.1.bayesian)

# A tibble: 4,000 × 13
   .chain .iteration .draw b_Intercept b_parent sigma   lp__ accept_stat__
    <int>      <int> <int>       <dbl>    <dbl> <dbl>  <dbl>         <dbl>
 1      1          1     1        25.2    0.630  2.35 -2070.         0.595
 2      1          2     2        17.8    0.737  2.22 -2069.         0.972
 3      1          3     3        30.2    0.555  2.25 -2069.         0.992
 4      1          4     4        29.8    0.562  2.17 -2070.         0.942
 5      1          5     5        21.7    0.678  2.14 -2069.         0.916
 6      1          6     6        24.0    0.643  2.31 -2068.         0.919
 7      1          7     7        21.2    0.687  2.16 -2069.         0.981
 8      1          8     8        29.2    0.569  2.29 -2069.         0.962
 9      1          9     9        29.1    0.571  2.25 -2068.         1    
10      1         10    10        18.4    0.727  2.25 -2069.         0.934
# ℹ 3,990 more rows
# ℹ 5 more variables: stepsize__ <dbl>, treedepth__ <dbl>, n_leapfrog__ <dbl>,
#   divergent__ <dbl>, energy__ <dbl>
…
