Random Topics
…
- For fitted values, need to use entire equation
`\(\hat{Y} = e^{b_{0}+b_{1}X_{1}}\)`

- Turn to probabilities by: `\(\frac{\text{odds}}{(1 + \text{odds})}\)`

---
## Example

```r
# 1 = not premature
mortality
```

```
## # A tibble: 300 × 4
##    Intelligence_Self Intelligence_Mate premature.d NOT.premature
##                <dbl>             <dbl> <fct>               <dbl>
##  1                22                19 normal                  1
##  2                22                18 normal                  1
##  3                21                21 normal                  1
##  4                22                17 normal                  1
##  5                19                18 normal                  1
##  6                19                20 premature               0
##  7                16                18 normal                  1
##  8                15                11 premature               0
##  9                16                21 normal                  1
## 10                19                22 normal                  1
## # … with 290 more rows
```
…
